1,0.235,24.400,23.000,4.600,97.872,5.405
2,0.268,24.400,22.800,5.200,85.075,6.110
3,0.295,24.400,22.500,5.800,76.271,6.638
4,0.323,24.300,22.300,6.350,69.040,7.203
5,0.353,24.300,22.000,7.000,62.323,7.766
6,0.380,24.300,21.750,7.500,57.237,8.265
7,0.402,24.300,21.500,8.000,53.483,8.643
8,0.449,24.300,21.000,8.900,46.771,9.429
9,0.474,24.300,20.700,9.400,43.671,9.812
10,0.496,24.200,20.500,9.900,41.331,10.168
11,0.513,24.200,20.200,10.200,39.376,10.363
12,0.532,24.200,20.000,10.600,37.594,10.640
13,0.569,24.200,19.500,11.400,34.271,11.096
14,0.604,24.200,19.000,12.000,31.457,11.476
15,0.637,24.200,18.500,12.800,29.042,11.785
16,0.667,24.100,18.000,13.300,26.987,12.006
17,0.697,24.100,17.500,14.000,25.108,12.198
18,0.724,24.100,17.000,14.500,23.481,12.308
19,0.757,24.100,16.400,15.200,21.664,12.415
20,0.789,24.100,15.800,15.800,20.025,12.466
21,0.827,24.000,15.000,16.600,18.138,12.405
22,0.852,24.100,14.500,17.100,17.019,12.354
23,0.872,24.000,14.100,17.500,16.170,12.295
24,0.894,24.000,13.500,17.900,15.101,12.069
25,0.920,24.100,13.000,18.500,14.130,11.960
26,0.936,24.000,12.600,18.700,13.462,11.794
27,0.958,24.100,12.000,19.100,12.526,11.496
28,0.976,24.100,11.500,19.500,11.783,11.224
29,0.996,24.100,10.900,20.000,10.944,10.856
30,1.015,24.100,10.400,20.200,10.246,10.556
31,1.026,24.100,10.000,20.500,9.747,10.260
32,1.055,24.100,9.100,21.100,8.626,9.601
33,1.086,24.100,8.000,21.600,7.366,8.688
34,1.111,24.100,7.000,22.200,6.301,7.777
35,1.133,24.200,6.100,22.600,5.384,6.911
36,1.156,24.200,4.900,23.000,4.239,5.664
37,1.171,24.200,4.100,23.300,3.501,4.801
38,1.191,24.300,2.900,23.700,2.435,3.454
39,1.206,24.300,2.000,23.900,1.658,2.412
40,1.219,24.300,1.000,24.000,0.820,1.219
41,1.228,24.400,0.000,24.400,0.000,0.000
